id;ma;ten
1;productize Towels;copy granular
2;synergistic Afghani Adaptive;Reduced green
3;Fresh Branding;Networked
4;navigating Buckinghamshire revolutionary;Legacy Small
5;maximize reintermediate;Licensed
6;override;Michigan
7;Washington Chips;invoice Product Central
8;Port;Tennessee Tasty edge
9;Secured compressing Parkways;seize
10;card discrete;Small Cross-platform
