id;ngay_chung_tu;so_tien;khach_hang_id;khoan_muc_chi_phi_id;quy_tien_id
1;2021-05-15T15:55:20;62993;1;1;1
2;2021-05-16T07:53:00;99749;2;2;2
3;2021-05-16T02:16:52;80859;3;3;3
4;2021-05-15T13:56:02;78184;4;4;4
5;2021-05-15T15:50:49;85997;5;5;5
6;2021-05-15T14:15:01;55576;6;6;6
7;2021-05-15T12:41:20;17658;7;7;7
8;2021-05-15T17:32:45;74056;8;8;8
9;2021-05-15T21:28:52;11168;9;9;9
10;2021-05-16T08:36:37;57861;10;10;10
