{
  "fields": [
    {
      "fieldName": "ngayThuMua",
      "fieldType": "Instant",
      "fieldValidateRules": ["required"]
    },
    {
      "fieldName": "soLuong",
      "fieldType": "Integer",
      "fieldValidateRules": ["required", "min"],
      "fieldValidateRulesMin": "1"
    },
    {
      "fieldName": "chiPhiMua",
      "fieldType": "Double",
      "fieldValidateRules": ["required", "min"],
      "fieldValidateRulesMin": "1"
    }
  ],
  "relationships": [
    {
      "relationshipName": "taiSanCD",
      "otherEntityName": "taiSanCD",
      "relationshipType": "many-to-one",
      "relationshipValidateRules": ["required"],
      "otherEntityField": "ten"
    }
  ],
  "service": "serviceImpl",
  "dto": "mapstruct",
  "jpaMetamodelFiltering": true,
  "readOnly": false,
  "pagination": "pagination",
  "name": "ChiTietTangTSCD",
  "changelogDate": "20210516040916"
}
