{
  "fields": [
    {
      "fieldName": "ngayTao",
      "fieldType": "Instant",
      "fieldValidateRules": ["required"]
    },
    {
      "fieldName": "ngayPhaiTra",
      "fieldType": "Instant",
      "fieldValidateRules": ["required"]
    },
    {
      "fieldName": "soTien",
      "fieldType": "Double",
      "fieldValidateRules": ["required", "min"],
      "fieldValidateRulesMin": "1"
    },
    {
      "fieldName": "ghiChu",
      "fieldType": "String"
    }
  ],
  "relationships": [
    {
      "relationshipName": "khachHang",
      "otherEntityName": "khachHang",
      "relationshipType": "many-to-one",
      "relationshipValidateRules": ["required"],
      "otherEntityField": "ten"
    },
    {
      "relationshipName": "maKeToan",
      "otherEntityName": "maKeToan",
      "relationshipType": "many-to-one",
      "relationshipValidateRules": ["required"],
      "otherEntityField": "soHieu"
    },
    {
      "relationshipName": "dsPhieuChi",
      "otherEntityName": "phieuChi",
      "relationshipType": "one-to-many",
      "otherEntityRelationshipName": "khoanPhaiTra"
    }
  ],
  "service": "serviceImpl",
  "dto": "mapstruct",
  "jpaMetamodelFiltering": true,
  "readOnly": false,
  "pagination": "pagination",
  "name": "KhoanPhaiTra",
  "changelogDate": "20210516102248"
}
