{
  "fields": [
    {
      "fieldName": "ten",
      "fieldType": "String",
      "fieldValidateRules": ["required"]
    },
    {
      "fieldName": "nam",
      "fieldType": "Integer",
      "fieldValidateRules": ["required", "min"],
      "fieldValidateRulesMin": "1"
    },
    {
      "fieldName": "soTien",
      "fieldType": "Double",
      "fieldValidateRules": ["required", "min"],
      "fieldValidateRulesMin": "1"
    }
  ],
  "relationships": [
    {
      "relationshipName": "khachSan",
      "otherEntityName": "khachSan",
      "relationshipType": "many-to-one",
      "relationshipValidateRules": ["required"],
      "otherEntityField": "ten"
    },
    {
      "relationshipName": "nganSachThang",
      "otherEntityName": "nganSachThang",
      "relationshipType": "one-to-many",
      "otherEntityRelationshipName": "nganSachNam"
    }
  ],
  "service": "serviceImpl",
  "dto": "mapstruct",
  "jpaMetamodelFiltering": true,
  "readOnly": false,
  "pagination": "pagination",
  "name": "NganSachNam",
  "changelogDate": "20210517021606"
}
